FIFO_project/dump.vcd
$date
    Jul 26, 2024  14:44:58
$end
$version
    TOOL:	ncsim(64)	15.20-s086
$end
$timescale
    1 ns
$end

$scope module tb $end

$scope module fif $end
$var reg       1 !    clock  $end
$var reg       1 "    rd  $end
$var reg       1 #    wr  $end
$var reg       1 $    full  $end
$var reg       1 %    empty  $end
$var reg       8 &    data_in [7:0] $end
$var reg       8 '    data_out [7:0] $end
$var reg       1 (    rst  $end
$upscope $end

$upscope $end

$enddefinitions $end
$dumpvars
0!
0"
0#
x$
x%
b0 &
b0 '
1(
$end
#10
1!
#20
0!
#30
1!
#40
0!
#50
1!
#60
0!
#70
1!
#80
0!
#90
1!
0(
#100
0!
#110
1!
1#
b110 &
#120
0!
#130
1!
0#
b0 &
#140
0!
#150
1!
#160
0!
#170
1!
1#
b11 &
#180
0!
#190
1!
0#
#200
0!
#210
1!
#220
0!
#230
1!
1"
#240
0!
#250
1!
0"
#260
0!
#270
1!
#280
0!
#290
1!
1#
b101 &
#300
0!
#310
1!
0#
#320
0!
#330
1!
#340
0!
#350
1!
1#
b1001 &
#360
0!
#370
1!
0#
#380
0!
#390
1!
#400
0!
#410
1!
1#
b100 &
#420
0!
#430
1!
0#
#440
0!
#450
1!
#460
0!
#470
1!
1"
#480
0!
#490
1!
0"
#500
0!
#510
1!
#520
0!
#530
1!
1#
b10 &
#540
0!
#550
1!
0#
#560
0!
#570
1!
#580
0!
#590
1!
1"
#600
0!
#610
1!
0"
#620
0!
#630
1!
#640
0!
#650
1!
1"
#660
0!
#670
1!
0"
