FIFO_project/project_1/project_1.sim/sim_1/behav/xsim/dump.vcd
$date
   Mon Jul 15 20:10:32 2024
$end
$version
  2018.2
$end
$timescale
  1ps
$end
$scope module tb $end
$scope module fif $end
$var reg 1 ! clock $end
$var reg 1 " rd $end
$var reg 1 # wr $end
$var reg 1 $ full $end
$var reg 1 % empty $end
$var reg 8 & data_in [7:0] $end
$var reg 8 ' data_out [7:0] $end
$var reg 1 ( rst $end
$upscope $end
$scope module dut $end
$var wire 1 ) clk $end
$var wire 1 * rst $end
$var wire 1 + wr $end
$var wire 1 , rd $end
$var wire 1 - empty $end
$var wire 1 . full $end
$var wire 8 / dataIn [7:0] $end
$var reg 8 0 dataOut [7:0] $end
$var reg 4 1 wrptr [3:0] $end
$var reg 4 2 rdptr [3:0] $end
$var reg 5 3 count [4:0] $end
$upscope $end
$upscope $end
$enddefinitions $end
#0
$dumpvars
0!
0"
0#
x$
x%
b0 &
bz0 '
1(
0)
1*
0+
0,
1-
0.
b0x /
bx 0
b0 1
b0 2
b0 3
$end
#10000
1!
1)
b0 1
b0 2
b0 3
#20000
0!
0)
#30000
1!
1)
b0 1
b0 2
b0 3
#40000
0!
0)
#50000
1!
1)
b0 1
b0 2
b0 3
#60000
0!
0)
#70000
1!
1)
b0 1
b0 2
b0 3
#80000
0!
0)
#90000
1!
0(
1)
0*
b0 1
b0 2
b0 3
#100000
0!
0)
#110000
1!
1"
0#
0(
1)
1,
#120000
0!
0)
#130000
1!
0"
1)
0,
#140000
0!
0)
#150000
1!
1)
#160000
0!
0)
#170000
1!
1"
0#
0(
1)
1,
#180000
0!
0)
#190000
1!
0"
1)
0,
#200000
0!
0)
#210000
1!
1)
#220000
0!
0)
#230000
1!
0"
1#
b101 &
0(
1)
1+
#240000
0!
0)
#250000
1!
0#
bz0 &
1)
0+
0-
0.
b1 1
b1 3
#260000
0!
0)
#270000
1!
1)
#280000
0!
0)
#290000
1!
0"
1#
b11 &
0(
1)
1+
#300000
0!
0)
#310000
1!
0#
1)
0+
0-
0.
b10 1
b10 3
#320000
0!
0)
#330000
1!
1)
#340000
0!
0)
#350000
1!
0"
1#
b11 &
0(
1)
1+
#360000
0!
0)
#370000
1!
0#
1)
0+
0-
0.
b11 1
b11 3
#380000
0!
0)
#390000
1!
1)
#400000
0!
0)
#410000
1!
0"
1#
b101 &
0(
1)
1+
#420000
0!
0)
#430000
1!
0#
1)
0+
0-
0.
b100 1
b100 3
#440000
0!
0)
#450000
1!
1)
#460000
0!
0)
#470000
1!
1"
0#
0(
1)
1,
#480000
0!
0)
#490000
1!
0"
x$
1)
0,
0-
0.
b0x 0
b1 2
b11 3
#500000
0!
0)
#510000
1!
1)
#520000
0!
0)
#530000
1!
1"
0#
0(
1)
1,
#540000
0!
0)
#550000
1!
0"
1)
0,
0-
0.
b0x 0
b10 2
b10 3
#560000
0!
0)
#570000
1!
1)
#580000
0!
0)
#590000
1!
1"
0#
0(
1)
1,
#600000
0!
0)
#610000
1!
0"
1)
0,
0-
0.
b0x 0
b11 2
b1 3
#620000
0!
0)
#630000
1!
1)
#640000
0!
0)
#650000
1!
1"
0#
0(
1)
1,
#660000
0!
0)
#670000
1!
0"
bz1 &
1)
0,
1-
0.
b0x 0
b100 2
b0 3
